{
  "$schema": "https://schema.management.azure.com/schemas/2015-01-01/deploymentTemplate.json#",
  "contentVersion": "1.0.0.0",
  "parameters": {
    "adminUsername": {
      "type": "string",
      "metadata": {
        "description": "Admin username used when provisioning virtual machines"
      }
    },
    "adminPassword": {
      "type": "securestring",
      "defaultValue": "",
      "metadata": {
        "description": "Admin password used when provisioning virtual machines"
      }
    },
    "virtualNetworkName": {
      "type": "string",
      "defaultValue": "es-vnet",
      "metadata": {
        "description": "Virtual Network"
      }
    },
    "OS": {
      "type": "string",
      "defaultValue": "ubuntu",
      "allowedValues": [
        "ubuntu",
        "centos",
        "windows"
      ],
      "metadata": {
        "description": "The operating system to deploy Elasticsearch cluster on"
      }
    },
    "authenticationType": {
      "type": "string",
      "defaultValue": "password",
      "allowedValues": [
        "password",
        "sshPublicKey"
      ],
      "metadata": {
        "description": "Whether to use a password or ssh key (Linux only) as authentication"
      }
    },
    "sshPublicKey": {
      "type": "string",
      "defaultValue": "",
      "metadata": {
        "description": "The public ssh key to use for authentication (Linux only)"
      }
    },
    "loadBalancerType": {
      "type": "string",
      "defaultValue": "internal",
      "allowedValues": [
        "internal",
        "external"
      ],
      "metadata": {
        "description": "Setup the load balancer internal or external.  If you are setting up Elasticsearch on an external endpoint you will need to secure your nodes with a product like Elasticsearch Shield"
      }
    },
    "jumpbox": {
      "type": "string",
      "defaultValue": "Yes",
      "allowedValues": [
        "Yes",
        "No"
      ],
      "metadata": {
        "description": "Optionally add a virtual machine to the deployment which you can use to connect and manage virtual machines on the internal network"
      }
    },
    "vmClientNodeCount": {
      "type": "int",
      "defaultValue": 1,
      "allowedValues": [
        0,
        1,
        2,
        3,
        4,
        5,
        6,
        7,
        8,
        9
      ],
      "metadata": {
        "description": "Number of Elasticsearch client nodes to provision (Setting this to zero puts the data nodes on the load balancer)"
      }
    },
    "vmSizeClientNodes": {
      "type": "string",
      "defaultValue": "Standard_D2_v2",
      "allowedValues": [
        "Standard_D2_v2",
        "Standard_D3_v2",
        "Standard_D4_v2",
        "Standard_A2",
        "Standard_A3",
        "Standard_A4",
        "Standard_A5",
        "Standard_A6",
        "Standard_A7",
        "Standard_DS2",
        "Standard_DS3",
        "Standard_DS4",
        "Standard_DS13"
      ],
      "metadata": {
        "description": "Size of the Elasticsearch cluster client nodes"
      }
    },
    "vmSizeMasterNodes": {
      "type": "string",
      "defaultValue": "Standard_D2_v2",
      "allowedValues": [
        "Standard_D2_v2",
        "Standard_D3_v2",
        "Standard_D4_v2",
        "Standard_A2",
        "Standard_A3",
        "Standard_A4",
        "Standard_A5",
        "Standard_A6",
        "Standard_A7",
        "Standard_DS2",
        "Standard_DS3",
        "Standard_DS4",
        "Standard_DS13"
      ],
      "metadata": {
        "description": "Size of the Elasticsearch master nodes"
      }
    },
    "vmSizeDataNodes": {
      "type": "string",
      "defaultValue": "Standard_D2_v2",
      "allowedValues": [
        "Standard_D2_v2",
        "Standard_D3_v2",
        "Standard_D4_v2",
        "Standard_D12_v2",
        "Standard_A2",
        "Standard_A3",
        "Standard_A4",
        "Standard_A5",
        "Standard_A6",
        "Standard_A7",
        "Standard_DS2",
        "Standard_DS3",
        "Standard_DS4",
        "Standard_DS13",
        "Standard_DS14"
      ],
      "metadata": {
        "description": "Size of the Elasticsearch data nodes"
      }
    },
    "vmDataNodeCount": {
      "type": "int",
      "defaultValue": 3,
      "metadata": {
        "description": "Number of Elasticsearch data nodes"
      }
    },
    "esClusterName": {
      "type": "string",
      "defaultValue": "elasticsearch",
      "metadata": {
        "description": "The name of the Elasticsearch cluster"
      }
    },
    "esVersion": {
      "type": "string",
      "defaultValue": "5.2.2",
      "allowedValues": [
		"5.2.2",
        "2.3.1",
        "2.1.2",
        "1.7.5"
      ],
      "metadata": {
        "description": "Elasticsearch version to install"
      }
    },
    "afs": {
      "type": "string",
      "defaultValue": "no",
      "allowedValues": [
        "yes",
        "no"
      ],
      "metadata": {
        "description": "Setup an Azure File Service share to store the Elasticsearch data (ubuntu, elasticsearch 2.x only)"
      }
    },
    "marvel": {
      "type": "string",
      "defaultValue": "yes",
      "allowedValues": [
        "yes",
        "no"
      ],
      "metadata": {
        "description": "Install the Marvel agent in the cluster"
      }
    },
    "marvelCluster": {
      "type": "string",
      "defaultValue": "no",
      "allowedValues": [
        "yes",
        "no"
      ],
      "metadata": {
        "description": "Build a standalone 3 node cluster for Marvel data"
      }
    },
    "vmSizeMarvelNodes": {
      "type": "string",
      "defaultValue": "Standard_D2_v2",
      "allowedValues": [
        "Standard_D2_v2",
        "Standard_D3_v2",
        "Standard_D4_v2",
        "Standard_A2",
        "Standard_A3",
        "Standard_A4"
      ],
      "metadata": {
        "description": "Size of the Elasticsearch Marvel cluster nodes, if selected"
      }
    },
    "kibana": {
      "type": "string",
      "defaultValue": "yes",
      "allowedValues": [
        "yes",
        "no"
      ],
      "metadata": {
        "description": "Provision a machine with Kibana on it"
      }
    },
    "sense": {
      "type": "string",
      "defaultValue": "yes",
      "allowedValues": [
        "yes",
        "no"
      ],
      "metadata": {
        "description": "Install the Sense plugin (2.x only, requires Kibana)"
      }
    },
    "jmeterAgent": {
      "type": "string",
      "defaultValue": "no",
      "allowedValues": [
        "yes",
        "no"
      ],
      "metadata": {
        "description": "Install the JMeter Server Agent on each node (Ubuntu only)"
      }
    },
    "cloudAzure": {
      "type": "string",
      "defaultValue": "no",
      "allowedValues": [
        "yes",
        "no"
      ],
      "metadata": {
        "description": "Install the cloud-azure plugin, which enables Azure backups"
      }
    },
    "cloudAzureStorageAccount": {
      "type": "string",
      "defaultValue": "",
      "metadata": {
        "description": "The name of the storage account to use for the cloud-azure plugin"
      }
    },
    "cloudAzureStorageKey": {
      "type": "securestring",
      "defaultValue": "",
      "metadata": {
        "description": "The storage account key used to access the storage account listed above"
      }
    },
    "_artifactsLocation": {
      "type": "string",
      "defaultValue": "https://bitbucket.org/afesh/azure-quickstart-templates/raw/2dfc8e4de94c5088042989810a116cca6916441d/elasticsearch",
      "metadata": {
        "description": "Change this value to your repo name if deploying from a fork"
      }
    },
    "_artifactsLocationSasToken": {
      "type": "securestring",
      "defaultValue": "",
      "metadata": {
        "description": "Auto-generated token to access _artifactsLocation"
      }
    }
  },
  "variables": {
    "nestedTemplatesFolderName": "nestedtemplates",
    "scriptsLocation": "[concat(parameters('_artifactsLocation'), '/scripts/')]",
    "sharedScriptsLocation": "https://bitbucket.org/afesh/azure-quickstart-templates/raw/2dfc8e4de94c5088042989810a116cca6916441d/shared_scripts/ubuntu/",
    "storageAccountPrefix": "[concat(substring(uniqueString(resourceGroup().id, parameters('esClusterName')), 0, 6), substring(parameters('esClusterName'), 0, 3))]",
    "storageAccountNameAFS": "[concat(variables('storageAccountPrefix'), 'afs')]",
    "storageAccountNameShared": "[concat(variables('storageAccountPrefix'), 'sh')]",
    "masterNodesIpPrefix": "10.0.0.1",
    "marvelNodesIpPrefix": "10.0.2.2",
    "kibanaIPPrefix": {
      "yes": "[variables('marvelNodesIpPrefix')]",
      "no": "[variables('masterNodesIpPrefix')]"
    },
    "kibanaIP": "[concat('http://', variables('kibanaIPPrefix')[parameters('marvelCluster')], '0:9200')]",
    "networkSettings": {
      "virtualNetworkName": "[parameters('virtualNetworkName')]",
      "addressPrefix": "10.0.0.0/16",
      "subnet": {
        "master": {
          "name": "master",
          "prefix": "10.0.0.0/24",
          "vnet": "[parameters('virtualNetworkName')]"
        },
        "data": {
          "name": "data",
          "prefix": "10.0.1.0/24",
          "vnet": "[parameters('virtualNetworkName')]"
        },
        "other": {
          "name": "other",
          "prefix": "10.0.2.0/24",
          "vnet": "[parameters('virtualNetworkName')]"
        }
      }
    },
    "esSettings": {
      "clusterName": "[parameters('esClusterName')]",
      "marvelClusterName": "[concat(parameters('esClusterName'), '-marvel')]",
      "version": "[parameters('esVersion')]",
      "discoveryHosts": "[concat(variables('masterNodesIpPrefix'), '-3')]",
      "marvelHosts": "[concat(variables('marvelNodesIpPrefix'), '-3')]"
    },
    "sharedTemplateFileName": "shared-resources.json",
    "masterTemplateFileName": "master-nodes-resources.json",
    "marvelTemplates": {
      "yes": "marvel-nodes-resources.json",
      "no": "empty-resources.json"
    },
    "clientTemplates": [
      "empty-resources.json",
      "client-nodes-resources.json"
    ],
    "marvelTemplateFileName": "[variables('marvelTemplates')[parameters('marvelCluster')]]",
    "clientTemplateFileName": "[variables('clientTemplates')[mod(add(parameters('vmClientNodeCount'), 2), add(parameters('vmClientNodeCount'), 1))]]",
    "lbBackEndPoolsAdded": {
      "backendPools": [
        {
          "id": "[concat(resourceId('Microsoft.Network/loadBalancers', 'es-load-balancer'), '/backendAddressPools/LBBE')]"
        }
      ]
    },
    "lbBackendPoolsRemoved": {
      "backendPools": []
    },
    "dataLBSettingOptions": [
      "[variables('lbBackEndPoolsAdded')]",
      "[variables('lbBackendPoolsRemoved')]"
    ],
    "dataLBSettings": "[variables('dataLBSettingOptions')[mod(add(parameters('vmClientNodeCount'), 2), add(parameters('vmClientNodeCount'), 1))]]",
    "jumpboxTemplateYes": "jumpbox-resources.json",
    "jumpboxTemplateNo": "empty-resources.json",
    "jumpboxTemplateFileName": "[variables(concat('jumpboxTemplate', parameters('jumpbox')))]",
    "senseParam": {
      "yes": " -s ",
      "no": ""
    },
    "marvelParam": {
      "ubuntu": {
        "yes": " -m ",
        "no": ""
      },
      "centos": {
        "yes": " -m ",
        "no": ""
      },
      "windows": {
        "yes": " -m ",
        "no": ""
      }
    },
    "afsParam": {
      "ubuntu": {
        "yes": "[concat(' -a ', variables('storageAccountNameAFS'), ' -c -k ')]",
        "no": "[concat(' -a ', variables('storageAccountNameAFS'), ' -k ')]"
      },
      "centos": {
        "yes": "",
        "no": ""
      },
      "windows": {
        "yes": "",
        "no": ""
      }
    },
    "marvelExportParam": {
      "ubuntu": {
        "yes": "[concat(' -e ', variables('marvelNodesIpPrefix'), '-3')]",
        "no": ""
      },
      "centos" : {
        "yes" : "[concat(' -e ', variables('marvelNodesIpPrefix'), '-3')]",
        "no": ""  
      },
      "windows": {
        "yes": "[concat(' -marvelEndpoints ', variables('marvelNodesIpPrefix'), '-3')]",
        "no": ""
      }
    },
    "jmeterParam": {
      "yes": " -j ",
      "no": ""
    },
    "cloudAzureParam": {
      "yes": "[concat(' -po ', parameters('cloudAzureStorageAccount'), ' -r ', parameters('cloudAzureStorageKey'), ' ')]",
      "no": ""
    },
    "cloudAzureParamValue": "[variables('cloudAzureParam')[parameters('cloudAzure')]]",
    "marvelExportParamValue": "[variables('marvelExportParam')[parameters('OS')][parameters('marvelCluster')]]",
    "senseParamValue": "[variables('senseParam')[parameters('sense')]]",
    "marvelParamValue": "[variables('marvelParam')[parameters('OS')][parameters('marvel')]]",
    "jmeterParamValue": "[variables('jmeterParam')[parameters('jmeterAgent')]]",
    "afsParamValue": "[variables('afsParam')[parameters('OS')][parameters('afs')]]",
    "kibanaTemplates": {
      "yes": "kibana-resources.json",
      "no": "empty-resources.json"
    },
    "kibanaTemplateFileName": "[variables('kibanaTemplates')[parameters('kibana')]]",
    "ubuntuScripts": [
      "[concat(variables('scriptsLocation'), 'elasticsearch-ubuntu-install.sh', parameters('_artifactsLocationSasToken'))]",
      "[concat(variables('scriptsLocation'), 'kibana-install.sh', parameters('_artifactsLocationSasToken'))]",
      "[concat(variables('sharedScriptsLocation'), 'vm-disk-utils-0.1.sh')]",
      "[concat(variables('sharedScriptsLocation'), 'afs-utils-0.1.sh')]"
    ],
    "centosScripts": [
      "[concat(variables('scriptsLocation'), 'elasticsearch-centos-install.sh', parameters('_artifactsLocationSasToken'))]",
      "[concat(variables('scriptsLocation'), 'kibana-centos-install.sh', parameters('_artifactsLocationSasToken'))]",
      "[concat(variables('sharedScriptsLocation'), 'vm-disk-utils-0.1.sh')]"
    ],
    "windowsScripts": [
      "[concat(variables('scriptsLocation'), 'elasticsearch-windows-install.ps1', parameters('_artifactsLocationSasToken'))]"
    ],
    "authSet": {
      "password": "[parameters('adminPassword')]",
      "sshKey": "[parameters('sshPublicKey')]",
      "type": "[parameters('authenticationType')]"
    },
    "configurationObject": {
      "password": {},
      "sshPublicKey": {
        "disablePasswordAuthentication": "true",
        "ssh": {
          "publicKeys": [
            {
              "path": "[concat('/home/', parameters('adminUsername'), '/.ssh/authorized_keys')]",
              "keyData": "[parameters('sshPublicKey')]"
            }
          ]
        }
      }
    },
    "ubuntuSettings": {
      "imageReference": {
        "publisher": "Canonical",
        "offer": "UbuntuServer",
        "sku": "16.04-LTS",
        "version": "latest"
      },
      "linuxConfiguration": "[variables('configurationObject')[parameters('authenticationType')]]",
      "managementPort": "22",
      "extensionSettings": {
        "marvel": {
          "publisher": "Microsoft.Azure.Extensions",
          "type": "CustomScript",
          "autoUpgradeMinorVersion": true,
          "typeHandlerVersion": "2.0",
          "settings": {
            "fileUris": "[variables('ubuntuScripts')]",
            "commandToExecute": "[concat('bash elasticsearch-ubuntu-install.sh -wn ', variables('esSettings').marvelClusterName, ' -v ', variables('esSettings').version, ' -d ', variables('esSettings').marvelHosts, ' -k ')]"
          }
        },
        "master": {
          "publisher": "Microsoft.Azure.Extensions",
          "type": "CustomScript",
          "autoUpgradeMinorVersion": true,
          "typeHandlerVersion": "2.0",
          "settings": {
            "fileUris": "[variables('ubuntuScripts')]",
            "commandToExecute": "[concat('bash elasticsearch-ubuntu-install.sh -xn ', variables('esSettings').clusterName, ' -v ', variables('esSettings').version, ' -d ', variables('esSettings').discoveryHosts, variables('marvelParamValue'), variables('jmeterParamValue'), variables('cloudAzureParamValue'), variables('marvelExportParamValue'), variables('afsParamValue'))]"
          }
        },
        "client": {
          "publisher": "Microsoft.Azure.Extensions",
          "type": "CustomScript",
          "typeHandlerVersion": "2.0",
          "autoUpgradeMinorVersion": true,
          "settings": {
            "fileUris": "[variables('ubuntuScripts')]",
            "commandToExecute": "[concat('bash elasticsearch-ubuntu-install.sh -yn ', variables('esSettings').clusterName, ' -v ', variables('esSettings').version, ' -d ', variables('esSettings').discoveryHosts, variables('marvelParamValue'), variables('jmeterParamValue'), variables('cloudAzureParamValue'), variables('marvelExportParamValue'), variables('afsParamValue'))]"
          }
        },
        "data": {
          "publisher": "Microsoft.Azure.Extensions",
          "type": "CustomScript",
          "typeHandlerVersion": "2.0",
          "settings": {
            "fileUris": "[variables('ubuntuScripts')]",
            "commandToExecute": "[concat('bash elasticsearch-ubuntu-install.sh -zn ', variables('esSettings').clusterName, ' -v ', variables('esSettings').version, ' -d ', variables('esSettings').discoveryHosts, variables('marvelParamValue'), variables('jmeterParamValue'), variables('cloudAzureParamValue'), variables('marvelExportParamValue'), variables('afsParamValue'))]"
          }
        },
        "kibana": {
          "publisher": "Microsoft.Azure.Extensions",
          "type": "CustomScript",
	  "autoUpgradeMinorVersion": true,
          "typeHandlerVersion": "2.0",
          "settings": {
            "fileUris": "[variables('ubuntuScripts')]",
            "commandToExecute": "[concat('bash kibana-install.sh -v ', variables('esSettings').version, variables('marvelParamValue'), variables('senseParamValue'), ' -t ', variables('kibanaIP'))]"
          }
        }
      }
    },
    "centosSettings": {
      "imageReference":{
        "publisher": "OpenLogic",
        "offer": "CentOS",
        "sku": "7.2",
        "version": "latest"
      },
      "linuxConfiguration": "[variables('configurationObject')[parameters('authenticationType')]]",
      "managementPort":"22",
      "extensionSettings":{
        "marvel": {
            "publisher": "Microsoft.Azure.Extensions",
            "type": "CustomScript",
            "autoUpgradeMinorVersion": true,
            "typeHandlerVersion": "2.0",
            "settings": {
              "fileUris": "[variables('centosScripts')]",
              "commandToExecute": "[concat('bash elasticsearch-centos-install.sh -wn ', variables('esSettings').marvelClusterName, ' -v ', variables('esSettings').version, ' -d ', variables('esSettings').marvelHosts, ' -k ')]"
            }
          },
        "master": {
            "publisher": "Microsoft.Azure.Extensions",
            "type": "CustomScript",
            "typeHandlerVersion": "2.0",
            "autoUpgradeMinorVersion": true,
            "settings": {
              "fileUris": "[variables('centosScripts')]",
              "commandToExecute": "[concat('bash elasticsearch-centos-install.sh -xn ', variables('esSettings').clusterName, ' -v ', variables('esSettings').version, ' -d ', variables('esSettings').discoveryHosts, variables('marvelParamValue'), variables('jmeterParamValue'), variables('cloudAzureParamValue'), variables('marvelExportParamValue'), variables('afsParamValue'))]"
            }
          },
        "client": {
            "publisher": "Microsoft.Azure.Extensions",
            "type": "CustomScript",
            "typeHandlerVersion": "2.0",
            "autoUpgradeMinorVersion": true,
            "settings": {
              "fileUris": "[variables('centosScripts')]",
              "commandToExecute": "[concat('bash elasticsearch-centos-install.sh -yn ', variables('esSettings').clusterName, ' -v ', variables('esSettings').version, ' -d ', variables('esSettings').discoveryHosts, variables('marvelParamValue'), variables('jmeterParamValue'),  variables('cloudAzureParamValue'),variables('marvelExportParamValue'), variables('afsParamValue'))]"
            }
          },
        "data": {
          "publisher": "Microsoft.Azure.Extensions",
          "type": "CustomScript",
          "typeHandlerVersion": "2.0",
          "autoUpgradeMinorVersion": true,
          "settings": {
            "fileUris": "[variables('centosScripts')]",
            "commandToExecute": "[concat('bash elasticsearch-centos-install.sh -zn ', variables('esSettings').clusterName, ' -v ', variables('esSettings').version, ' -d ', variables('esSettings').discoveryHosts, variables('marvelParamValue'), variables('jmeterParamValue'),  variables('cloudAzureParamValue'),variables('marvelExportParamValue'), variables('afsParamValue'))]"
          }
        },
        "kibana": {
          "publisher": "Microsoft.Azure.Extensions",
          "type": "CustomScript",
          "typeHandlerVersion": "2.0",
          "autoUpgradeMinorVersion": true,
          "settings": {
            "fileUris": "[variables('centosScripts')]",
            "commandToExecute": "[concat('bash kibana-centos-install.sh -v ', variables('esSettings').version, variables('marvelParamValue'), variables('senseParamValue'), ' -t ', variables('kibanaIP'))]"
          }
        }
      }
    },
    "windowsSettings": {
      "imageReference": {
        "publisher": "MicrosoftWindowsServer",
        "offer": "WindowsServer",
        "sku": "2012-R2-Datacenter",
        "version": "latest"
      },
      "linuxConfiguration": "",
      "managementPort": "3389",
      "extensionSettings": {
        "marvel": {
          "publisher": "Microsoft.Compute",
          "type": "CustomScriptExtension",
          "typeHandlerVersion": "1.4",
          "autoUpgradeMinorVersion": true,
          "settings": {
            "fileUris": "[variables('windowsScripts')]",
            "commandToExecute": "[concat('powershell.exe -File elasticsearch-windows-install.ps1 -elasticSearchVersion ', variables('esSettings').version, ' -elasticClusterName ', variables('esSettings').marvelClusterName, ' -discoveryEndpoints ', variables('esSettings').marvelHosts, ' -marvelOnlyNode -storageKey ')]"
          }
        },
        "master": {
          "publisher": "Microsoft.Compute",
          "type": "CustomScriptExtension",
          "typeHandlerVersion": "1.4",
          "autoUpgradeMinorVersion": true,
          "settings": {
            "fileUris": "[variables('windowsScripts')]",
            "commandToExecute": "[concat('powershell.exe -File elasticsearch-windows-install.ps1 -elasticSearchVersion ', variables('esSettings').version, ' -elasticClusterName ', variables('esSettings').clusterName, ' -discoveryEndpoints ', variables('esSettings').discoveryHosts, variables('cloudAzureParamValue'), variables('marvelParamValue'), variables('marvelExportParamValue'), ' -masterOnlyNode -storageKey ')]"
          }
        },
        "client": {
          "publisher": "Microsoft.Compute",
          "type": "CustomScriptExtension",
          "typeHandlerVersion": "1.4",
          "autoUpgradeMinorVersion": true,
          "settings": {
            "fileUris": "[variables('windowsScripts')]",
            "commandToExecute": "[concat('powershell.exe -File elasticsearch-windows-install.ps1 -elasticSearchVersion ', variables('esSettings').version, ' -elasticClusterName ', variables('esSettings').clusterName, ' -discoveryEndpoints ', variables('esSettings').discoveryHosts, variables('cloudAzureParamValue'), variables('marvelParamValue'), variables('marvelExportParamValue'), ' -clientOnlyNode -storageKey ')]"
          }
        },
        "data": {
          "publisher": "Microsoft.Compute",
          "type": "CustomScriptExtension",
          "typeHandlerVersion": "1.4",
          "autoUpgradeMinorVersion": true,
          "settings": {
            "fileUris": "[variables('windowsScripts')]",
            "commandToExecute": "[concat('powershell.exe -File elasticsearch-windows-install.ps1 -elasticSearchVersion ', variables('esSettings').version, ' -elasticClusterName ', variables('esSettings').clusterName, ' -discoveryEndpoints ', variables('esSettings').discoveryHosts, variables('cloudAzureParamValue'), variables('marvelParamValue'), variables('marvelExportParamValue'), ' -dataOnlyNode -storageKey ')]"
          }
        }
      }
    },
    "osSettings": "[variables(concat(parameters('OS'), 'Settings'))]",
    "dataSkuSettings": {
      "Standard_D1_v2": {
        "dataDisks": 2,
        "nodesPerStorageAccount": 6,
        "storageAccountType": "Standard_LRS"
      },
      "Standard_D2_v2": {
        "dataDisks": 4,
        "nodesPerStorageAccount": 4,
        "storageAccountType": "Standard_LRS"
      },
      "Standard_D3_v2": {
        "dataDisks": 8,
        "nodesPerStorageAccount": 3,
        "storageAccountType": "Standard_LRS"
      },
      "Standard_D4_v2": {
        "dataDisks": 16,
        "nodesPerStorageAccount": 2,
        "storageAccountType": "Standard_LRS"
      },
      "Standard_D12_v2": {
        "dataDisks": 8,
        "nodesPerStorageAccount": 3,
        "storageAccountType": "Standard_LRS"
      },
      "Standard_DS1": {
        "dataDisks": 2,
        "nodesPerStorageAccount": 6,
        "storageAccountType": "Premium_LRS"
      },
      "Standard_DS2": {
        "dataDisks": 4,
        "nodesPerStorageAccount": 4,
        "storageAccountType": "Premium_LRS"
      },
      "Standard_DS3": {
        "dataDisks": 8,
        "nodesPerStorageAccount": 4,
        "storageAccountType": "Premium_LRS"
      },
      "Standard_DS4": {
        "dataDisks": 16,
        "nodesPerStorageAccount": 2,
        "storageAccountType": "Premium_LRS"
      },
      "Standard_DS13": {
        "dataDisks": 16,
        "nodesPerStorageAccount": 2,
        "storageAccountType": "Premium_LRS"
      },
      "Standard_DS14": {
        "dataDisks": 16,
        "nodesPerStorageAccount": 2,
        "storageAccountType": "Premium_LRS"
      },
      "Standard_A2": {
        "dataDisks": 4,
        "nodesPerStorageAccount": 6,
        "storageAccountType": "Standard_LRS"
      },
      "Standard_A3": {
        "dataDisks": 8,
        "nodesPerStorageAccount": 4,
        "storageAccountType": "Standard_LRS"
      },
      "Standard_A4": {
        "dataDisks": 16,
        "nodesPerStorageAccount": 2,
        "storageAccountType": "Standard_LRS"
      },
      "Standard_A7": {
        "dataDisks": 16,
        "nodesPerStorageAccount": 2,
        "storageAccountType": "Standard_LRS"
      }
    },
    "nodesPerStorageAccount": "[variables('dataSkuSettings')[parameters('vmSizeDataNodes')].nodesPerStorageAccount]",
    "storageBinPackMap": [
      "[div(sub(add(1, variables('nodesPerStorageAccount')), 1), variables('nodesPerStorageAccount'))]",
      "[div(sub(add(2, variables('nodesPerStorageAccount')), 1), variables('nodesPerStorageAccount'))]",
      "[div(sub(add(3, variables('nodesPerStorageAccount')), 1), variables('nodesPerStorageAccount'))]",
      "[div(sub(add(4, variables('nodesPerStorageAccount')), 1), variables('nodesPerStorageAccount'))]",
      "[div(sub(add(5, variables('nodesPerStorageAccount')), 1), variables('nodesPerStorageAccount'))]",
      "[div(sub(add(6, variables('nodesPerStorageAccount')), 1), variables('nodesPerStorageAccount'))]",
      "[div(sub(add(7, variables('nodesPerStorageAccount')), 1), variables('nodesPerStorageAccount'))]",
      "[div(sub(add(8, variables('nodesPerStorageAccount')), 1), variables('nodesPerStorageAccount'))]",
      "[div(sub(add(9, variables('nodesPerStorageAccount')), 1), variables('nodesPerStorageAccount'))]",
      "[div(sub(add(10, variables('nodesPerStorageAccount')), 1), variables('nodesPerStorageAccount'))]",
      "[div(sub(add(11, variables('nodesPerStorageAccount')), 1), variables('nodesPerStorageAccount'))]",
      "[div(sub(add(12, variables('nodesPerStorageAccount')), 1), variables('nodesPerStorageAccount'))]",
      "[div(sub(add(13, variables('nodesPerStorageAccount')), 1), variables('nodesPerStorageAccount'))]",
      "[div(sub(add(14, variables('nodesPerStorageAccount')), 1), variables('nodesPerStorageAccount'))]",
      "[div(sub(add(15, variables('nodesPerStorageAccount')), 1), variables('nodesPerStorageAccount'))]",
      "[div(sub(add(16, variables('nodesPerStorageAccount')), 1), variables('nodesPerStorageAccount'))]",
      "[div(sub(add(17, variables('nodesPerStorageAccount')), 1), variables('nodesPerStorageAccount'))]",
      "[div(sub(add(18, variables('nodesPerStorageAccount')), 1), variables('nodesPerStorageAccount'))]",
      "[div(sub(add(19, variables('nodesPerStorageAccount')), 1), variables('nodesPerStorageAccount'))]",
      "[div(sub(add(20, variables('nodesPerStorageAccount')), 1), variables('nodesPerStorageAccount'))]",
      "[div(sub(add(21, variables('nodesPerStorageAccount')), 1), variables('nodesPerStorageAccount'))]",
      "[div(sub(add(22, variables('nodesPerStorageAccount')), 1), variables('nodesPerStorageAccount'))]",
      "[div(sub(add(23, variables('nodesPerStorageAccount')), 1), variables('nodesPerStorageAccount'))]",
      "[div(sub(add(24, variables('nodesPerStorageAccount')), 1), variables('nodesPerStorageAccount'))]",
      "[div(sub(add(25, variables('nodesPerStorageAccount')), 1), variables('nodesPerStorageAccount'))]",
      "[div(sub(add(26, variables('nodesPerStorageAccount')), 1), variables('nodesPerStorageAccount'))]",
      "[div(sub(add(27, variables('nodesPerStorageAccount')), 1), variables('nodesPerStorageAccount'))]",
      "[div(sub(add(28, variables('nodesPerStorageAccount')), 1), variables('nodesPerStorageAccount'))]",
      "[div(sub(add(29, variables('nodesPerStorageAccount')), 1), variables('nodesPerStorageAccount'))]",
      "[div(sub(add(30, variables('nodesPerStorageAccount')), 1), variables('nodesPerStorageAccount'))]",
      "[div(sub(add(31, variables('nodesPerStorageAccount')), 1), variables('nodesPerStorageAccount'))]",
      "[div(sub(add(32, variables('nodesPerStorageAccount')), 1), variables('nodesPerStorageAccount'))]",
      "[div(sub(add(33, variables('nodesPerStorageAccount')), 1), variables('nodesPerStorageAccount'))]",
      "[div(sub(add(34, variables('nodesPerStorageAccount')), 1), variables('nodesPerStorageAccount'))]",
      "[div(sub(add(35, variables('nodesPerStorageAccount')), 1), variables('nodesPerStorageAccount'))]",
      "[div(sub(add(36, variables('nodesPerStorageAccount')), 1), variables('nodesPerStorageAccount'))]",
      "[div(sub(add(37, variables('nodesPerStorageAccount')), 1), variables('nodesPerStorageAccount'))]",
      "[div(sub(add(38, variables('nodesPerStorageAccount')), 1), variables('nodesPerStorageAccount'))]",
      "[div(sub(add(39, variables('nodesPerStorageAccount')), 1), variables('nodesPerStorageAccount'))]",
      "[div(sub(add(40, variables('nodesPerStorageAccount')), 1), variables('nodesPerStorageAccount'))]",
      "[div(sub(add(51, variables('nodesPerStorageAccount')), 1), variables('nodesPerStorageAccount'))]",
      "[div(sub(add(52, variables('nodesPerStorageAccount')), 1), variables('nodesPerStorageAccount'))]",
      "[div(sub(add(53, variables('nodesPerStorageAccount')), 1), variables('nodesPerStorageAccount'))]",
      "[div(sub(add(54, variables('nodesPerStorageAccount')), 1), variables('nodesPerStorageAccount'))]",
      "[div(sub(add(55, variables('nodesPerStorageAccount')), 1), variables('nodesPerStorageAccount'))]",
      "[div(sub(add(56, variables('nodesPerStorageAccount')), 1), variables('nodesPerStorageAccount'))]",
      "[div(sub(add(57, variables('nodesPerStorageAccount')), 1), variables('nodesPerStorageAccount'))]",
      "[div(sub(add(58, variables('nodesPerStorageAccount')), 1), variables('nodesPerStorageAccount'))]",
      "[div(sub(add(59, variables('nodesPerStorageAccount')), 1), variables('nodesPerStorageAccount'))]",
      "[div(sub(add(60, variables('nodesPerStorageAccount')), 1), variables('nodesPerStorageAccount'))]"
    ],
    "dataNodeStorageSettings": {
      "count": "[div(sub(add(parameters('vmDataNodeCount'), variables('nodesPerStorageAccount')), 1), variables('nodesPerStorageAccount'))]",
      "mapping": "[variables('storageBinPackMap')]",
      "accountType": "[variables('dataSkuSettings')[parameters('vmSizeDataNodes')].storageAccountType]",
      "afs": "[variables('storageAccountNameAFS')]",
      "shared": "[variables('storageAccountNameShared')]",
      "prefix": "[concat(variables('storageAccountPrefix'), 'da')]"
    },
    "dataTemplateFileName": {
      "afs-yes": "data-nodes-0disk-resources.json",
      "afs-no": "[concat('data-nodes-', string(variables('dataSkuSettings')[parameters('vmSizeDataNodes')].dataDisks), 'disk-resources.json')]"
    },
    "dataTemplateFileNameValue": "[variables('dataTemplateFileName')[concat('afs-', parameters('afs'))]]"
  },
  "resources": [
    {
      "name": "master-nodes",
      "type": "Microsoft.Resources/deployments",
      "apiVersion": "2015-01-01",
      "dependsOn": [
        "[resourceId('Microsoft.Resources/deployments', 'shared')]"
      ],
      "properties": {
        "mode": "Incremental",
        "templateLink": {
          "uri": "[concat(parameters('_artifactsLocation'), '/', variables('nestedTemplatesFolderName'), '/', variables('masterTemplateFileName'), parameters('_artifactsLocationSasToken'))]",
          "contentVersion": "1.0.0.0"
        },
        "parameters": {
          "storageSettings": {
            "value": "[variables('dataNodeStorageSettings')]"
          },
          "adminUsername": {
            "value": "[parameters('adminUsername')]"
          },
          "authSet": {
            "value": "[variables('authSet')]"
          },
          "masterNodesIpPrefix": {
            "value": "[variables('masterNodesIpPrefix')]"
          },
          "vmSize": {
            "value": "[parameters('vmSizeMasterNodes')]"
          },
          "subnet": {
            "value": "[variables('networkSettings').subnet.master]"
          },
          "osSettings": {
            "value": "[variables('osSettings')]"
          },
          "namespace": {
            "value": "[concat(parameters('esClusterName'), '-master')]"
          }
        }
      }
    },
    {
      "name": "marvel-nodes",
      "type": "Microsoft.Resources/deployments",
      "apiVersion": "2015-01-01",
      "dependsOn": [
        "[resourceId('Microsoft.Resources/deployments', 'shared')]"
      ],
      "properties": {
        "mode": "Incremental",
        "templateLink": {
          "uri": "[concat(parameters('_artifactsLocation'), '/', variables('nestedTemplatesFolderName'), '/', variables('marvelTemplateFileName'), parameters('_artifactsLocationSasToken'))]",
          "contentVersion": "1.0.0.0"
        },
        "parameters": {
          "storageAccountName": {
            "value": "[variables('storageAccountNameShared')]"
          },
          "adminUsername": {
            "value": "[parameters('adminUsername')]"
          },
          "authSet": {
            "value": "[variables('authSet')]"
          },
          "marvelNodesIpPrefix": {
            "value": "[variables('marvelNodesIpPrefix')]"
          },
          "vmSize": {
            "value": "[parameters('vmSizeMarvelNodes')]"
          },
          "subnet": {
            "value": "[variables('networkSettings').subnet.other]"
          },
          "osSettings": {
            "value": "[variables('osSettings')]"
          },
          "namespace": {
            "value": "[concat(parameters('esClusterName'), '-marvel')]"
          }
        }
      }
    },
    {
      "name": "shared",
      "type": "Microsoft.Resources/deployments",
      "apiVersion": "2015-01-01",
      "properties": {
        "mode": "Incremental",
        "templateLink": {
          "uri": "[concat(parameters('_artifactsLocation'), '/', variables('nestedTemplatesFolderName'), '/', variables('sharedTemplateFileName'), parameters('_artifactsLocationSasToken'))]",
          "contentVersion": "1.0.0.0"
        },
        "parameters": {
          "networkSettings": {
            "value": "[variables('networkSettings')]"
          },
          "storageSettings": {
            "value": "[variables('dataNodeStorageSettings')]"
          },
          "loadBalancerType": {
            "value": "[parameters('loadBalancerType')]"
          },
          "ilbIpAddress": {
            "value": "10.0.2.100"
          }
        }
      }
    },
    {
      "name": "client-nodes",
      "type": "Microsoft.Resources/deployments",
      "apiVersion": "2015-01-01",
      "dependsOn": [
        "[resourceId('Microsoft.Resources/deployments', 'shared')]"
      ],
      "properties": {
        "mode": "Incremental",
        "templateLink": {
          "uri": "[concat(parameters('_artifactsLocation'), '/', variables('nestedTemplatesFolderName'), '/', variables('clientTemplateFileName'), parameters('_artifactsLocationSasToken'))]",
          "contentVersion": "1.0.0.0"
        },
        "parameters": {
          "adminUsername": {
            "value": "[parameters('adminUsername')]"
          },
          "authSet": {
            "value": "[variables('authSet')]"
          },
          "storageSettings": {
            "value": "[variables('dataNodeStorageSettings')]"
          },
          "subnet": {
            "value": "[variables('networkSettings').subnet.other]"
          },
          "vmSize": {
            "value": "[parameters('vmSizeClientNodes')]"
          },
          "osSettings": {
            "value": "[variables('osSettings')]"
          },
          "vmCount": {
            "value": "[parameters('vmClientNodeCount')]"
          },
          "lbBackendPools": {
            "value": "[variables('lbBackEndPoolsAdded')]"
          },
          "namespace": {
            "value": "[concat(parameters('esClusterName'), '-client')]"
          }
        }
      }
    },
    {
      "name": "data-nodes",
      "type": "Microsoft.Resources/deployments",
      "apiVersion": "2015-01-01",
      "dependsOn": [
        "[resourceId('Microsoft.Resources/deployments', 'shared')]"
      ],
      "properties": {
        "mode": "Incremental",
        "templateLink": {
          "uri": "[concat(parameters('_artifactsLocation'), '/', variables('nestedTemplatesFolderName'), '/', variables('dataTemplateFileNameValue'), parameters('_artifactsLocationSasToken'))]",
          "contentVersion": "1.0.0.0"
        },
        "parameters": {
          "adminUsername": {
            "value": "[parameters('adminUsername')]"
          },
          "authSet": {
            "value": "[variables('authSet')]"
          },
          "storageSettings": {
            "value": "[variables('dataNodeStorageSettings')]"
          },
          "subnet": {
            "value": "[variables('networkSettings').subnet.data]"
          },
          "vmSize": {
            "value": "[parameters('vmSizeDataNodes')]"
          },
          "vmCount": {
            "value": "[parameters('vmDataNodeCount')]"
          },
          "namespace": {
            "value": "[concat(parameters('esClusterName'), '-data')]"
          },
          "osSettings": {
            "value": "[variables('osSettings')]"
          },
          "lbBackendPools": {
            "value": "[variables('dataLBSettings')]"
          }
        }
      }
    },
    {
      "name": "jumpbox",
      "type": "Microsoft.Resources/deployments",
      "apiVersion": "2015-01-01",
      "dependsOn": [
        "[resourceId('Microsoft.Resources/deployments', 'shared')]"
      ],
      "properties": {
        "mode": "Incremental",
        "templateLink": {
          "uri": "[concat(parameters('_artifactsLocation'), '/', variables('nestedTemplatesFolderName'), '/', variables('jumpboxTemplateFileName'), parameters('_artifactsLocationSasToken'))]",
          "contentVersion": "1.0.0.0"
        },
        "parameters": {
          "storageAccountName": {
            "value": "[variables('storageAccountNameShared')]"
          },
          "adminUsername": {
            "value": "[parameters('adminUsername')]"
          },
          "authSet": {
            "value": "[variables('authSet')]"
          },
          "subnet": {
            "value": "[variables('networkSettings').subnet.other]"
          },
          "osSettings": {
            "value": "[variables('osSettings')]"
          },
          "namespace": {
            "value": "[concat(parameters('esClusterName'), '-jumpbox')]"
          }
        }
      }
    },
    {
      "name": "kibana",
      "type": "Microsoft.Resources/deployments",
      "apiVersion": "2015-01-01",
      "dependsOn": [
        "[resourceId('Microsoft.Resources/deployments', 'shared')]"
      ],
      "properties": {
        "mode": "Incremental",
        "templateLink": {
          "uri": "[concat(parameters('_artifactsLocation'), '/', variables('nestedTemplatesFolderName'), '/', variables('kibanaTemplateFileName'), parameters('_artifactsLocationSasToken'))]",
          "contentVersion": "1.0.0.0"
        },
        "parameters": {
          "storageAccountName": {
            "value": "[variables('storageAccountNameShared')]"
          },
          "adminUsername": {
            "value": "[parameters('adminUsername')]"
          },
          "authSet": {
            "value": "[variables('authSet')]"
          },
          "subnet": {
            "value": "[variables('networkSettings').subnet.other]"
          },
          "osSettings": {
            "value": "[variables('osSettings')]"
          },
          "namespace": {
            "value": "[concat(parameters('esClusterName'), '-kibana')]"
          }
        }
      }
    }
  ]
}
