{
  "$schema": "http://schema.management.azure.com/schemas/2015-01-01/deploymentParameters.json#",
  "contentVersion": "1.0.0.0",
  "parameters": {
    "VMName": {
      "value": "demomeemimelastic"
    },
    "adminUsername": {
      "value": "mifadmin"
    },
    "adminPassword": {
      "value": "Kan1sItdawv4"
    },
	"ubuntuOSVersion": {
      "value": "16.04.0-LTS"
    },
	"vmSizeNodes": {
      "value": "Basic_A1"
    }
	
    	
  }
}
